\relax 
\citation{czyzowicz2015convergence}
\citation{AADFP06}
\citation{AAER07}
\@writefile{toc}{\contentsline {section}{\numberline {1}Introduction}{1}}
\citation{AR09}
\citation{MCS11}
\citation{HS98}
\citation{HS98}
\citation{SMJSRP14}
\citation{SMJSRP14}
\@writefile{lof}{\contentsline {figure}{\numberline {1}{\ignorespaces Examples of objective functions for opinion spreading: probability $p$ that a given type becomes dominant in the population as a function of the fraction $r$ of its supporters in the initial population.\vspace  {-3mm}}}{2}}
\newlabel{fig0}{{1}{2}}
\citation{AADFP06}
\citation{AAE08}
\citation{AAE08}
\citation{AR09}
\citation{MNRS14}
\citation{DBLP:conf/podc/AlistarhGV15}
\citation{DBLP:conf/soda/AlistarhAEGR17}
\citation{DBLP:conf/wdag/BerenbrinkEFKKR18}
\citation{DBLP:conf/podc/BilkeCER17}
\citation{DBLP:conf/soda/AlistarhAG18}
\citation{DBLP:conf/podc/KosowskiU18}
\citation{AR09}
\citation{K12}
\citation{MCS11}
\@writefile{toc}{\contentsline {subsection}{\numberline {1.1}Our Results}{3}}
\@writefile{toc}{\contentsline {subsection}{\numberline {1.2}Related Work}{3}}
\@writefile{toc}{\contentsline {paragraph}{Population Protocols and Majority Computation.}{3}}
\citation{DF01}
\citation{HP01}
\citation{CER14}
\citation{BCNPST14}
\citation{CG14}
\citation{CER14}
\citation{AD15}
\citation{DG74}
\citation{L1910}
\citation{SMJSRP14}
\citation{KRFB02}
\citation{KR04}
\citation{RMF06}
\citation{DF12}
\citation{PK09}
\citation{CS08}
\@writefile{toc}{\contentsline {paragraph}{Spreading of opinion and voting.}{4}}
\@writefile{toc}{\contentsline {paragraph}{Discrete Lotka-Volterra dynamics and cyclic games.}{4}}
\citation{DBLP:conf/soda/AlistarhAG18}
\citation{DBLP:conf/spaa/GasieniecSU19}
\citation{DBLP:conf/soda/GasieniecS18}
\citation{DBLP:conf/stoc/DudekK18}
\citation{DBLP:conf/podc/KosowskiU18}
\@writefile{toc}{\contentsline {subsection}{\numberline {1.3}Model and Preliminaries}{5}}
\citation{HS98}
\newlabel{eq:lv}{{1}{6}}
\@writefile{toc}{\contentsline {section}{\numberline {2}Convergence of Discrete LV-type Protocols}{6}}
\newlabel{sec:convergence}{{2}{6}}
\citation{HS98}
\citation{HS98}
\citation{HS98}
\@writefile{toc}{\contentsline {subsection}{\numberline {2.1}Bound on Convergence Time under Complete Interactions}{7}}
\newlabel{sec:polynomial}{{2.1}{7}}
\newlabel{thm:lvtime}{{2.1}{7}}
\newlabel{eq:lvs}{{2}{7}}
\newlabel{eq:deltadef}{{3}{8}}
\newlabel{eq:deltabound}{{4}{8}}
\newlabel{eq:expdelta}{{5}{8}}
\newlabel{eq:expdeltacasei}{{6}{9}}
\citation{HS98}
\@writefile{toc}{\contentsline {subsection}{\numberline {2.2}Rock-Paper-Scissors with the Star Interaction Graph}{10}}
\newlabel{sec:star}{{2.2}{10}}
\newlabel{def:rps}{{2.1}{10}}
\newlabel{eq:exp_pot}{{7}{11}}
\newlabel{lemma:pot_change}{{2.3}{11}}
\@writefile{toc}{\contentsline {section}{\numberline {3}The Wolves-and-Sheep (WS) Protocol}{12}}
\newlabel{sec:majority}{{3}{12}}
\@writefile{toc}{\contentsline {paragraph}{Phase I.}{13}}
\@writefile{toc}{\contentsline {paragraph}{Phase II.}{14}}
\newlabel{eq:growthY}{{8}{15}}
\newlabel{eq:growthX}{{9}{15}}
\@writefile{toc}{\contentsline {paragraph}{Phase III.}{16}}
\newlabel{lem:12power}{{3.2}{16}}
\newlabel{eq:bla1}{{10}{16}}
\newlabel{eq:bla2}{{11}{16}}
\newlabel{eq:bla3}{{12}{16}}
\@writefile{toc}{\contentsline {section}{\numberline {4}The Rock-Paper-Scissors (RPS) Protocol}{17}}
\newlabel{sec:rps}{{4}{17}}
\newlabel{eq:deltana}{{13}{17}}
\newlabel{eq:contrps}{{14}{17}}
\newlabel{thm:rps}{{4.1}{17}}
\citation{LPW06}
\@writefile{toc}{\contentsline {subsection}{\numberline {4.1}Technical lemmas}{18}}
\newlabel{sec:rpstech}{{4.1}{18}}
\newlabel{lem:martingale}{{4.2}{19}}
\newlabel{eq:conc}{{15}{19}}
\newlabel{eq:anticonc}{{16}{19}}
\newlabel{eq:heavy1}{{18}{20}}
\newlabel{eq:heavy}{{19}{20}}
\newlabel{eq:light}{{20}{20}}
\newlabel{lem:convU}{{4.3}{21}}
\newlabel{lem:disttime}{{4.4}{22}}
\newlabel{lem:duinfty}{{4.5}{23}}
\newlabel{lem:infdist}{{4.6}{23}}
\@writefile{lof}{\contentsline {figure}{\numberline {2}{\ignorespaces Illustration of the proof of Lemma\nobreakspace  {}4.6\hbox {}: (a) Short-term view ($T < n^{2/3}$) and (b) Long-term view ($T>n^{2/3}$).}}{24}}
\newlabel{fig1}{{2}{24}}
\newlabel{eq:edelta}{{23}{24}}
\newlabel{eq:distxp}{{24}{25}}
\newlabel{eq:distxq}{{25}{25}}
\@writefile{toc}{\contentsline {subsection}{\numberline {4.2}The coupling framework}{26}}
\newlabel{sec:rpscoupling}{{4.2}{26}}
\citation{LPW06}
\newlabel{lem:coupling}{{4.8}{27}}
\@writefile{lof}{\contentsline {figure}{\numberline {3}{\ignorespaces Illustration of the coupling for the proof of Lemma\nobreakspace  {}4.8\hbox {}}}{28}}
\newlabel{fig2}{{3}{28}}
\citation{DF12}
\citation{RMF06}
\bibstyle{abbrv}
\bibdata{bib}
\bibcite{AD15}{1}
\bibcite{DBLP:conf/soda/AlistarhAEGR17}{2}
\bibcite{DBLP:conf/soda/AlistarhAG18}{3}
\bibcite{DBLP:conf/podc/AlistarhGV15}{4}
\bibcite{AADFP06}{5}
\bibcite{AAE08}{6}
\bibcite{AAER07}{7}
\bibcite{AR09}{8}
\bibcite{BCNPST14}{9}
\bibcite{DBLP:conf/wdag/BerenbrinkEFKKR18}{10}
\bibcite{DBLP:conf/podc/BilkeCER17}{11}
\bibcite{CS08}{12}
\bibcite{CER14}{13}
\bibcite{CG14}{14}
\bibcite{czyzowicz2015convergence}{15}
\bibcite{DG74}{16}
\bibcite{DF01}{17}
\bibcite{DF12}{18}
\bibcite{DBLP:conf/stoc/DudekK18}{19}
\bibcite{DBLP:conf/spaa/GasieniecSU19}{20}
\bibcite{DBLP:conf/soda/GasieniecS18}{21}
\bibcite{HP01}{22}
\bibcite{HS98}{23}
\bibcite{KRFB02}{24}
\bibcite{KR04}{25}
\bibcite{K12}{26}
\bibcite{DBLP:conf/podc/KosowskiU18}{27}
\bibcite{LPW06}{28}
\bibcite{L1910}{29}
\bibcite{MNRS14}{30}
\bibcite{MCS11}{31}
\bibcite{PK09}{32}
\bibcite{RMF06}{33}
\bibcite{SMJSRP14}{34}
