\relax 
\citation{AADFP06,AAER07}
\@writefile{toc}{\contentsline {title}{ {APPENDIX: Full Version of the Paper\unskip \ \ignorespaces [8mm]On Convergence and Threshold Properties of\unskip \ \ignorespaces  Discrete Lotka-Volterra Population Protocols}}{i}}
\@writefile{toc}{\authcount {6}}
\@writefile{toc}{\contentsline {author}{ Jurek Czyzowicz\nobreakspace  {}\unskip {} \and Leszek Gasieniec\nobreakspace  {}\unskip {} \and Adrian Kosowski\nobreakspace  {}\unskip {} \and Evangelos Kranakis\nobreakspace  {}\unskip {} \and Paul\nobreakspace  {}G.\nobreakspace  {}Spirakis\unskip {} \and Przemys\l {}aw Uzna\'nski\nobreakspace  {}\unskip {} }{i}}
\@writefile{toc}{\contentsline {section}{\numberline {1}Introduction}{i}}
\citation{AR09,MCS11}
\citation{HS98}
\citation{HS98,SMJSRP14}
\citation{SMJSRP14}
\@writefile{toc}{\contentsline {subsection}{\numberline {1.1}Our Results}{ii}}
\@writefile{lof}{\contentsline {figure}{\numberline {1}{\ignorespaces Examples of objective functions for opinion spreading: probability $p$ that a given type becomes dominant in the population as a function of the fraction $r$ of its supporters in the initial population.\vspace  {-3mm}}}{iii}}
\newlabel{fig0}{{1}{iii}}
\citation{AADFP06,AAE08}
\citation{AAE08}
\citation{AR09}
\citation{MNRS14}
\citation{AR09,K12,MCS11}
\citation{DF01}
\citation{HP01}
\citation{CER14}
\citation{BCNPST14,CG14}
\citation{CER14}
\citation{AD15}
\@writefile{toc}{\contentsline {subsection}{\numberline {1.2}Related Work}{iv}}
\@writefile{toc}{\contentsline {paragraph}{Population Protocols and Majority Computation.}{iv}}
\@writefile{toc}{\contentsline {paragraph}{Spreading of opinion and voting.}{iv}}
\citation{L1910}
\citation{SMJSRP14}
\citation{KRFB02,KR04}
\citation{RMF06}
\citation{DF12}
\citation{PK09}
\citation{CS08}
\@writefile{toc}{\contentsline {paragraph}{Discrete Lotka-Volterra dynamics and cyclic games.}{v}}
\citation{HS98}
\@writefile{toc}{\contentsline {subsection}{\numberline {1.3}Model and Preliminaries}{vi}}
\newlabel{eq:lv}{{1}{vi}}
\citation{HS98}
\citation{HS98}
\@writefile{toc}{\contentsline {section}{\numberline {2}Convergence of Discrete LV-type Protocols}{vii}}
\newlabel{sec:convergence}{{2}{vii}}
\@writefile{toc}{\contentsline {subsection}{\numberline {2.1}Bound on Convergence Time under Complete Interactions}{vii}}
\newlabel{sec:polynomial}{{2.1}{vii}}
\newlabel{thm:lvtime}{{1}{vii}}
\newlabel{eq:lvs}{{2}{vii}}
\citation{HS98}
\newlabel{eq:deltadef}{{3}{ix}}
\newlabel{eq:deltabound}{{4}{ix}}
\newlabel{eq:expdelta}{{5}{ix}}
\newlabel{eq:expdeltacasei}{{6}{ix}}
\citation{HS98}
\@writefile{toc}{\contentsline {subsection}{\numberline {2.2}Rock-Paper-Scissors with the Star Interaction Graph}{xi}}
\newlabel{sec:star}{{2.2}{xi}}
\newlabel{def:rps}{{1}{xi}}
\newlabel{eq:exp_pot}{{7}{xii}}
\newlabel{lemma:pot_change}{{1}{xii}}
\@writefile{toc}{\contentsline {section}{\numberline {3}The Wolves-and-Sheep (WS) Protocol}{xiv}}
\newlabel{sec:majority}{{3}{xiv}}
\@writefile{toc}{\contentsline {paragraph}{Phase I.}{xiv}}
\@writefile{toc}{\contentsline {paragraph}{Phase II}{xv}}
\newlabel{eq:growthY}{{8}{xvi}}
\newlabel{eq:growthX}{{9}{xvii}}
\@writefile{toc}{\contentsline {paragraph}{Phase III}{xvii}}
\newlabel{lem:12power}{{3}{xvii}}
\newlabel{eq:bla1}{{10}{xviii}}
\newlabel{eq:bla2}{{11}{xviii}}
\newlabel{eq:bla3}{{12}{xviii}}
\@writefile{toc}{\contentsline {section}{\numberline {4}The Rock-Paper-Scissors (RPS) Protocol}{xix}}
\newlabel{sec:rps}{{4}{xix}}
\newlabel{eq:deltana}{{13}{xix}}
\newlabel{eq:contrps}{{14}{xix}}
\citation{LPW06}
\newlabel{thm:rps}{{4}{xx}}
\@writefile{toc}{\contentsline {subsection}{\numberline {4.1}Technical lemmas}{xxi}}
\newlabel{sec:rpstech}{{4.1}{xxi}}
\newlabel{lem:martingale}{{2}{xxi}}
\newlabel{eq:conc}{{15}{xxi}}
\newlabel{eq:anticonc}{{16}{xxi}}
\newlabel{eq:heavy1}{{18}{xxiii}}
\newlabel{eq:heavy}{{19}{xxiii}}
\newlabel{eq:light}{{20}{xxiii}}
\newlabel{lem:convU}{{3}{xxiv}}
\newlabel{lem:disttime}{{4}{xxv}}
\newlabel{lem:duinfty}{{5}{xxvi}}
\newlabel{lem:infdist}{{6}{xxvi}}
\@writefile{lof}{\contentsline {figure}{\numberline {2}{\ignorespaces Illustration of the proof of Lemma\nobreakspace  {}6\hbox {}: (a) Short-term view ($T < n^{2/3}$) and (b) Long-term view ($T>n^{2/3}$).}}{xxvii}}
\newlabel{fig1}{{2}{xxvii}}
\newlabel{eq:edelta}{{23}{xxvii}}
\newlabel{eq:distxp}{{24}{xxviii}}
\newlabel{eq:distxq}{{25}{xxviii}}
\@writefile{toc}{\contentsline {subsection}{\numberline {4.2}The coupling framework}{xxix}}
\newlabel{sec:rpscoupling}{{4.2}{xxix}}
\citation{LPW06}
\newlabel{lem:coupling}{{7}{xxxi}}
\@writefile{lof}{\contentsline {figure}{\numberline {3}{\ignorespaces Illustration of the coupling for the proof of Lemma\nobreakspace  {}7\hbox {}}}{xxxii}}
\newlabel{fig2}{{3}{xxxii}}
\citation{DF12,RMF06}
\bibcite{AD15}{1}
\bibcite{AADFP06}{2}
\bibcite{AAE08}{3}
\bibcite{AAER07}{4}
\bibcite{AR09}{5}
\bibcite{BCNPST14}{6}
\bibcite{CS08}{7}
\bibcite{CER14}{8}
\bibcite{CG14}{9}
\bibcite{DF01}{10}
\bibcite{DF12}{11}
\bibcite{HP01}{12}
\bibcite{HS98}{13}
\bibcite{KRFB02}{14}
\bibcite{KR04}{15}
\bibcite{K12}{16}
\bibcite{LPW06}{17}
\bibcite{L1910}{18}
\bibcite{MNRS14}{19}
\bibcite{MCS11}{20}
\bibcite{SMJSRP14}{21}
\bibcite{PK09}{22}
\bibcite{RMF06}{23}
