\relax 
\citation{AADFP06,AAER07}
\@writefile{toc}{\contentsline {title}{ {On Convergence and Threshold Properties of\unskip \ \ignorespaces  Discrete Lotka-Volterra Population Protocols}}{1}}
\@writefile{toc}{\authcount {6}}
\@writefile{toc}{\contentsline {author}{ Jurek Czyzowicz\nobreakspace  {}\unskip {} \and Leszek Gasieniec\nobreakspace  {}\unskip {} \and Adrian Kosowski\nobreakspace  {}\unskip {} \and Evangelos Kranakis\nobreakspace  {}\unskip {} \and Paul\nobreakspace  {}G.\nobreakspace  {}Spirakis\unskip {} \and Przemys\l {}aw Uzna\'nski\nobreakspace  {}\unskip {} }{1}}
\@writefile{toc}{\contentsline {section}{\numberline {1}Introduction}{1}}
\citation{AR09,MCS11}
\citation{HS98}
\citation{HS98,SMJSRP14}
\citation{SMJSRP14}
\@writefile{lof}{\contentsline {figure}{\numberline {1}{\ignorespaces Examples of objective functions for opinion spreading: probability $p$ that a given type becomes dominant in the population as a function of the fraction $r$ of its supporters in the initial population.\vspace  {-3mm}}}{2}}
\newlabel{fig0}{{1}{2}}
\citation{AADFP06,AAE08}
\citation{AAE08}
\citation{AR09}
\citation{MNRS14}
\citation{AR09,K12,MCS11}
\@writefile{toc}{\contentsline {subsection}{\numberline {1.1}Our Results}{3}}
\@writefile{toc}{\contentsline {subsection}{\numberline {1.2}Related Work}{3}}
\@writefile{toc}{\contentsline {paragraph}{Population Protocols and Majority Computation.}{3}}
\citation{DF01}
\citation{HP01}
\citation{CER14}
\citation{BCNPST14,CG14}
\citation{CER14}
\citation{AD15}
\citation{L1910}
\citation{SMJSRP14}
\citation{KRFB02,KR04}
\citation{RMF06}
\citation{DF12}
\citation{PK09}
\citation{CS08}
\@writefile{toc}{\contentsline {paragraph}{Spreading of opinion and voting.}{4}}
\@writefile{toc}{\contentsline {paragraph}{Discrete Lotka-Volterra dynamics and cyclic games.}{4}}
\@writefile{toc}{\contentsline {subsection}{\numberline {1.3}Model and Preliminaries}{5}}
\citation{HS98}
\citation{HS98}
\citation{HS98}
\newlabel{eq:lv}{{1}{6}}
\@writefile{toc}{\contentsline {section}{\numberline {2}Convergence of Discrete LV-type Protocols}{6}}
\newlabel{sec:convergence}{{2}{6}}
\newlabel{thm:lvtime}{{1}{6}}
\newlabel{eq:lvs}{{2}{6}}
\citation{HS98}
\citation{HS98}
\@writefile{toc}{\contentsline {section}{\numberline {3}The Wolves-and-Sheep (WS) Protocol}{8}}
\newlabel{sec:majority}{{3}{8}}
\@writefile{toc}{\contentsline {section}{\numberline {4}The Rock-Paper-Scissors (RPS) Protocol}{8}}
\newlabel{sec:rps}{{4}{8}}
\newlabel{eq:deltana}{{3}{8}}
\citation{LPW06}
\newlabel{eq:contrps}{{4}{9}}
\newlabel{thm:rps}{{4}{9}}
\newlabel{lem:martingale}{{1}{10}}
\newlabel{eq:conc}{{5}{10}}
\newlabel{eq:anticonc}{{6}{10}}
\newlabel{lem:convU}{{2}{10}}
\citation{DF12,RMF06}
\bibcite{AD15}{1}
\newlabel{lem:coupling}{{3}{11}}
\bibcite{AADFP06}{2}
\bibcite{AAE08}{3}
\bibcite{AAER07}{4}
\bibcite{AR09}{5}
\bibcite{BCNPST14}{6}
\bibcite{CS08}{7}
\bibcite{CER14}{8}
\bibcite{CG14}{9}
\bibcite{DF01}{10}
\bibcite{DF12}{11}
\bibcite{HP01}{12}
\bibcite{HS98}{13}
\bibcite{KRFB02}{14}
\bibcite{KR04}{15}
\bibcite{K12}{16}
\bibcite{LPW06}{17}
\bibcite{L1910}{18}
\bibcite{MNRS14}{19}
\bibcite{MCS11}{20}
\bibcite{SMJSRP14}{21}
\bibcite{PK09}{22}
\bibcite{RMF06}{23}
